…
    ## Parsed with column specification:
    ## cols(
    ##   .default = col_double(),
    ##   day = col_character()
    ## )

    ## See spec(...) for full column specifications.

``` r
accel_df$day = factor(accel_df$day, levels = c("Monday", "Tuesday", "Wednesday", "Thursday", "Friday", "Saturday", "Sunday"))
accel_df[order(accel_df$day), ]
```

    ## # A tibble: 50,400 x 6
    ##     week day_id day    minute activity_count weekday_or_weekend
    ##    <dbl>  <dbl> <fct>  <chr>           <dbl> <chr>             
    ##  1     1      2 Monday 1                   1 weekday           
    ##  2     1      2 Monday 2                   1 weekday           
    ##  3     1      2 Monday 3                   1 weekday           
    ##  4     1      2 Monday 4                   1 weekday           
    ##  5     1      2 Monday 5                   1 weekday           
    ##  6     1      2 Monday 6                   1 weekday           
    ##  7     1      2 Monday 7                   1 weekday           
    ##  8     1      2 Monday 8                   1 weekday           
    ##  9     1      2 Monday 9                   1 weekday           
    ## 10     1      2 Monday 10                  1 weekday           
    ## # … with 50,390 more rows
…
    ## `summarise()` regrouping output by 'week', 'day_id' (override with `.groups` argument)

``` r
accel_df_tidy$day = factor(accel_df_tidy$day, levels = c("Monday", "Tuesday", "Wednesday", "Thursday", "Friday", "Saturday", "Sunday"))
accel_df_tidy[order(accel_df_tidy$day), ]
```

    ## # A tibble: 35 x 4
    ## # Groups:   week, day_id [35]
    ##     week day_id day     mean_activity_count
    ##    <dbl>  <dbl> <fct>                 <dbl>
    ##  1     1      2 Monday                 54.7
    ##  2     2      9 Monday                205. 
    ##  3     3     16 Monday                476. 
    ##  4     4     23 Monday                284. 
    ##  5     5     30 Monday                270. 
    ##  6     1      6 Tuesday               213. 
    ##  7     2     13 Tuesday               294. 
    ##  8     3     20 Tuesday               265. 
    ##  9     4     27 Tuesday               222. 
    ## 10     5     34 Tuesday               255. 
    ## # … with 25 more rows

``` r
accel_df_tidy %>% 
  pivot_wider(
    names_from = day,
    values_from = mean_activity_count
  )
```

    ## # A tibble: 35 x 9
    ## # Groups:   week, day_id [35]
    ##     week day_id Friday Monday Saturday Sunday Thursday Tuesday Wednesday
    ##    <dbl>  <dbl>  <dbl>  <dbl>    <dbl>  <dbl>    <dbl>   <dbl>     <dbl>
    ##  1     1      1   334.   NA        NA     NA       NA      NA        NA 
    ##  2     1      2    NA    54.7      NA     NA       NA      NA        NA 
    ##  3     1      3    NA    NA       261.    NA       NA      NA        NA 
    ##  4     1      4    NA    NA        NA    438.      NA      NA        NA 
    ##  5     1      5    NA    NA        NA     NA      247.     NA        NA 
    ##  6     1      6    NA    NA        NA     NA       NA     213.       NA 
    ##  7     1      7    NA    NA        NA     NA       NA      NA       236.
    ##  8     2      8   395.   NA        NA     NA       NA      NA        NA 
    ##  9     2      9    NA   205.       NA     NA       NA      NA        NA 
    ## 10     2     10    NA    NA       422.    NA       NA      NA        NA 
    ## # … with 25 more rows
…
``` r
ny_noaa_df$tmin = as.double(as.character(ny_noaa_df$tmin))
ny_noaa_df$tmax = as.double(as.character(ny_noaa_df$tmax))

ny_noaa_df %>% 
  mutate(
    prcp = prcp * 10,
    tmin = tmin * 10,
    tmax = tmax * 10
  )
```

    ## # A tibble: 2,595,176 x 9
    ##    id          year  month day    prcp  snow  snwd  tmax  tmin
    ##    <chr>       <chr> <chr> <chr> <dbl> <int> <int> <dbl> <dbl>
    ##  1 US1NYAB0001 2007  11    01       NA    NA    NA    NA    NA
    ##  2 US1NYAB0001 2007  11    02       NA    NA    NA    NA    NA
    ##  3 US1NYAB0001 2007  11    03       NA    NA    NA    NA    NA
    ##  4 US1NYAB0001 2007  11    04       NA    NA    NA    NA    NA
    ##  5 US1NYAB0001 2007  11    05       NA    NA    NA    NA    NA
    ##  6 US1NYAB0001 2007  11    06       NA    NA    NA    NA    NA
    ##  7 US1NYAB0001 2007  11    07       NA    NA    NA    NA    NA
    ##  8 US1NYAB0001 2007  11    08       NA    NA    NA    NA    NA
    ##  9 US1NYAB0001 2007  11    09       NA    NA    NA    NA    NA
    ## 10 US1NYAB0001 2007  11    10       NA    NA    NA    NA    NA
    ## # … with 2,595,166 more rows
…
